/home/384363/eclipse-workspace/banksys/src/main/java/banksys/persistence/exception/AccountCreationException.java
/home/384363/eclipse-workspace/banksys/src/main/java/banksys/persistence/AccountVector.java
/home/384363/eclipse-workspace/banksys/src/main/java/banksys/view/ATM24H.java
/home/384363/eclipse-workspace/banksys/src/main/java/banksys/persistence/exception/AccountNotFoundException.java
/home/384363/eclipse-workspace/banksys/src/main/java/banksys/persistence/exception/ExistingAccountException.java
/home/384363/eclipse-workspace/banksys/src/main/java/banksys/account/TaxAccount.java
/home/384363/eclipse-workspace/banksys/src/main/java/banksys/account/SpecialAccount.java
/home/384363/eclipse-workspace/banksys/src/main/java/banksys/account/OrdinaryAccount.java
/home/384363/eclipse-workspace/banksys/src/main/java/banksys/persistence/exception/AccountDeletionException.java
/home/384363/eclipse-workspace/banksys/src/main/java/banksys/control/exception/BankTransactionException.java
/home/384363/eclipse-workspace/banksys/src/main/java/banksys/persistence/exception/PersistenceException.java
/home/384363/eclipse-workspace/banksys/src/main/java/banksys/persistence/IAccountRepository.java
/home/384363/eclipse-workspace/banksys/src/main/java/banksys/control/exception/IncompatibleAccountException.java
/home/384363/eclipse-workspace/banksys/src/main/java/banksys/account/SavingsAccount.java
/home/384363/eclipse-workspace/banksys/src/main/java/banksys/account/exception/NegativeAmountException.java
/home/384363/eclipse-workspace/banksys/src/main/java/banksys/account/AbstractAccount.java
/home/384363/eclipse-workspace/banksys/src/main/java/banksys/persistence/AccountXStream.java
/home/384363/eclipse-workspace/banksys/src/main/java/banksys/control/BankController.java
/home/384363/eclipse-workspace/banksys/src/main/java/banksys/account/exception/InsufficientFundsException.java
/home/384363/eclipse-workspace/banksys/src/main/java/banksys/persistence/exception/FlushException.java
